<?xml version="1.0" encoding="UTF-8"?>
<robot generator="Robot 3.2.2 (Python 3.7.7 on win32)" generated="20200910 16:23:58.988" rpa="false">
<suite id="s1" name="Test tro choi" source="d:\MaycuaLam\Dubai\Test\Test_tro_choi.robot">
<test id="s1-t1" name="Template_Lam">
<kw name="Setup_Template" library="keyword" type="setup">
<kw name="Open Browser" library="RPA.Browser">
<doc>Opens a new browser instance to the optional ``url``.</doc>
<arguments>
<arg>${null}</arg>
<arg>chrome</arg>
</arguments>
<msg timestamp="20200910 16:23:59.419" level="INFO">Opening browser 'chrome' to base url 'None'.</msg>
<status status="PASS" starttime="20200910 16:23:59.418" endtime="20200910 16:24:02.575"></status>
</kw>
<kw name="Set_Up_Timing" library="keyword">
<kw name="Set Selenium Implicit Wait" library="RPA.Browser">
<doc>Sets the implicit wait value used by Selenium.</doc>
<arguments>
<arg>10 seconds</arg>
</arguments>
<status status="PASS" starttime="20200910 16:24:02.576" endtime="20200910 16:24:02.577"></status>
</kw>
<kw name="Set Selenium Timeout" library="RPA.Browser">
<doc>Sets the timeout that is used by various keywords.</doc>
<arguments>
<arg>20 seconds</arg>
</arguments>
<status status="PASS" starttime="20200910 16:24:02.577" endtime="20200910 16:24:02.578"></status>
</kw>
<kw name="Set Selenium Speed" library="RPA.Browser">
<doc>Sets the delay that is waited after each Selenium command.</doc>
<arguments>
<arg>1 second</arg>
</arguments>
<status status="PASS" starttime="20200910 16:24:02.578" endtime="20200910 16:24:02.578"></status>
</kw>
<kw name="Maximize Browser Window" library="RPA.Browser">
<doc>Maximizes current browser window.</doc>
<status status="PASS" starttime="20200910 16:24:02.578" endtime="20200910 16:24:05.698"></status>
</kw>
<status status="PASS" starttime="20200910 16:24:02.575" endtime="20200910 16:24:05.698"></status>
</kw>
<status status="PASS" starttime="20200910 16:23:59.418" endtime="20200910 16:24:05.698"></status>
</kw>
<kw name="Template" library="keyword">
<arguments>
<arg>https://www.zbet.win/</arg>
<arg>css=[placeholder='Tên đăng nhập...']</arg>
<arg>css=[placeholder='Mật khẩu...']</arg>
<arg>css=.btn--head-sign-in</arg>
<arg>css=.menu-primary__link--sport</arg>
<arg>css=a[href='https://www.zbet.win/sport/a-sport/play']</arg>
</arguments>
<kw name="Go To" library="RPA.Browser">
<doc>Navigates the current browser window to the provided ``url``.</doc>
<arguments>
<arg>${URL}</arg>
</arguments>
<msg timestamp="20200910 16:24:05.699" level="INFO">Opening url 'https://www.zbet.win/'</msg>
<status status="PASS" starttime="20200910 16:24:05.699" endtime="20200910 16:24:10.120"></status>
</kw>
<kw name="True/False" library="keyword">
<kw name="Run Keyword And Return Status" library="BuiltIn">
<doc>Runs the given keyword with given arguments and returns the status as a Boolean value.</doc>
<arguments>
<arg>Wait Until Element Is Visible</arg>
<arg>css=#onesignal-slidedown-dialog</arg>
</arguments>
<assign>
<var>${boo}</var>
</assign>
<kw name="Wait Until Element Is Visible" library="RPA.Browser">
<doc>Waits until the element ``locator`` is visible.</doc>
<arguments>
<arg>css=#onesignal-slidedown-dialog</arg>
</arguments>
<status status="PASS" starttime="20200910 16:24:10.121" endtime="20200910 16:24:32.369"></status>
</kw>
<msg timestamp="20200910 16:24:32.369" level="INFO">${boo} = True</msg>
<status status="PASS" starttime="20200910 16:24:10.120" endtime="20200910 16:24:32.369"></status>
</kw>
<kw name="Run Keyword If" library="BuiltIn">
<doc>Runs the given keyword with the given arguments, if ``condition`` is true.</doc>
<arguments>
<arg>${boo}==True</arg>
<arg>Click Element If Visible</arg>
<arg>css=#onesignal-slidedown-cancel-button</arg>
</arguments>
<kw name="Click Element If Visible" library="RPA.Browser">
<doc>Click element if it is visible</doc>
<arguments>
<arg>css=#onesignal-slidedown-cancel-button</arg>
</arguments>
<msg timestamp="20200910 16:24:34.393" level="INFO">Element 'css=#onesignal-slidedown-cancel-button' is displayed.</msg>
<msg timestamp="20200910 16:24:34.393" level="INFO">Clicking element 'css=#onesignal-slidedown-cancel-button'.</msg>
<status status="PASS" starttime="20200910 16:24:32.369" endtime="20200910 16:24:36.445"></status>
</kw>
<status status="PASS" starttime="20200910 16:24:32.369" endtime="20200910 16:24:36.445"></status>
</kw>
<status status="PASS" starttime="20200910 16:24:10.120" endtime="20200910 16:24:36.445"></status>
</kw>
<kw name="Input Text When Element Is Visible" library="RPA.Browser">
<doc>Input text into locator after it has become visible.</doc>
<arguments>
<arg>${TextĐN}</arg>
<arg>testervn1997</arg>
</arguments>
<msg timestamp="20200910 16:24:38.473" level="INFO">Typing text 'testervn1997' into text field 'css=[placeholder='Tên đăng nhập...']'.</msg>
<status status="PASS" starttime="20200910 16:24:36.445" endtime="20200910 16:24:41.585"></status>
</kw>
<kw name="Input Text When Element Is Visible" library="RPA.Browser">
<doc>Input text into locator after it has become visible.</doc>
<arguments>
<arg>${TextP}</arg>
<arg>lamkuteo</arg>
</arguments>
<msg timestamp="20200910 16:24:43.614" level="INFO">Typing text 'lamkuteo' into text field 'css=[placeholder='Mật khẩu...']'.</msg>
<status status="PASS" starttime="20200910 16:24:41.585" endtime="20200910 16:24:46.704"></status>
</kw>
<kw name="Click Element If Visible" library="RPA.Browser">
<doc>Click element if it is visible</doc>
<arguments>
<arg>${Đn}</arg>
</arguments>
<msg timestamp="20200910 16:24:48.725" level="INFO">Element 'css=.btn--head-sign-in' is displayed.</msg>
<msg timestamp="20200910 16:24:48.725" level="INFO">Clicking element 'css=.btn--head-sign-in'.</msg>
<status status="PASS" starttime="20200910 16:24:46.704" endtime="20200910 16:24:50.799"></status>
</kw>
<kw name="Click Element If Visible" library="RPA.Browser">
<doc>Click element if it is visible</doc>
<arguments>
<arg>${Sport}</arg>
</arguments>
<msg timestamp="20200910 16:24:53.449" level="INFO">Element 'css=.menu-primary__link--sport' is displayed.</msg>
<msg timestamp="20200910 16:24:53.449" level="INFO">Clicking element 'css=.menu-primary__link--sport'.</msg>
<status status="PASS" starttime="20200910 16:24:50.800" endtime="20200910 16:24:56.390"></status>
</kw>
<kw name="Click Element If Visible" library="RPA.Browser">
<doc>Click element if it is visible</doc>
<arguments>
<arg>${SSport}</arg>
</arguments>
<msg timestamp="20200910 16:24:58.451" level="INFO">Element 'css=a[href='https://www.zbet.win/sport/a-sport/play']' is displayed.</msg>
<msg timestamp="20200910 16:24:58.451" level="INFO">Clicking element 'css=a[href='https://www.zbet.win/sport/a-sport/play']'.</msg>
<status status="PASS" starttime="20200910 16:24:56.391" endtime="20200910 16:25:01.146"></status>
</kw>
<status status="PASS" starttime="20200910 16:24:05.699" endtime="20200910 16:25:01.146"></status>
</kw>
<kw name="Template" library="keyword">
<arguments>
<arg>https://debet.com/</arg>
<arg>css=[placeholder='Tên tài khoản']</arg>
<arg>css=.input--type-5[placeholder='Mật khẩu']</arg>
<arg>css=.button--login</arg>
<arg>css=a[href='/sport']</arg>
<arg>css=[src='//d1.debet.com/rs2/images/lobby/sport/sport_chaua.png']</arg>
</arguments>
<kw name="Go To" library="RPA.Browser">
<doc>Navigates the current browser window to the provided ``url``.</doc>
<arguments>
<arg>${URL}</arg>
</arguments>
<msg timestamp="20200910 16:25:01.147" level="INFO">Opening url 'https://debet.com/'</msg>
<status status="PASS" starttime="20200910 16:25:01.147" endtime="20200910 16:25:08.355"></status>
</kw>
<kw name="True/False" library="keyword">
<kw name="Run Keyword And Return Status" library="BuiltIn">
<doc>Runs the given keyword with given arguments and returns the status as a Boolean value.</doc>
<arguments>
<arg>Wait Until Element Is Visible</arg>
<arg>css=#onesignal-slidedown-dialog</arg>
</arguments>
<assign>
<var>${boo}</var>
</assign>
<kw name="Wait Until Element Is Visible" library="RPA.Browser">
<doc>Waits until the element ``locator`` is visible.</doc>
<arguments>
<arg>css=#onesignal-slidedown-dialog</arg>
</arguments>
<status status="PASS" starttime="20200910 16:25:08.356" endtime="20200910 16:25:11.625"></status>
</kw>
<msg timestamp="20200910 16:25:11.625" level="INFO">${boo} = True</msg>
<status status="PASS" starttime="20200910 16:25:08.356" endtime="20200910 16:25:11.625"></status>
</kw>
<kw name="Run Keyword If" library="BuiltIn">
<doc>Runs the given keyword with the given arguments, if ``condition`` is true.</doc>
<arguments>
<arg>${boo}==True</arg>
<arg>Click Element If Visible</arg>
<arg>css=#onesignal-slidedown-cancel-button</arg>
</arguments>
<kw name="Click Element If Visible" library="RPA.Browser">
<doc>Click element if it is visible</doc>
<arguments>
<arg>css=#onesignal-slidedown-cancel-button</arg>
</arguments>
<msg timestamp="20200910 16:25:13.652" level="INFO">Element 'css=#onesignal-slidedown-cancel-button' is displayed.</msg>
<msg timestamp="20200910 16:25:13.652" level="INFO">Clicking element 'css=#onesignal-slidedown-cancel-button'.</msg>
<status status="PASS" starttime="20200910 16:25:11.626" endtime="20200910 16:25:15.710"></status>
</kw>
<status status="PASS" starttime="20200910 16:25:11.625" endtime="20200910 16:25:15.710"></status>
</kw>
<status status="PASS" starttime="20200910 16:25:08.356" endtime="20200910 16:25:15.710"></status>
</kw>
<kw name="Input Text When Element Is Visible" library="RPA.Browser">
<doc>Input text into locator after it has become visible.</doc>
<arguments>
<arg>${TextĐN}</arg>
<arg>testervn1997</arg>
</arguments>
<msg timestamp="20200910 16:25:17.732" level="INFO">Typing text 'testervn1997' into text field 'css=[placeholder='Tên tài khoản']'.</msg>
<status status="PASS" starttime="20200910 16:25:15.710" endtime="20200910 16:25:20.875"></status>
</kw>
<kw name="Input Text When Element Is Visible" library="RPA.Browser">
<doc>Input text into locator after it has become visible.</doc>
<arguments>
<arg>${TextP}</arg>
<arg>lamkuteo</arg>
</arguments>
<msg timestamp="20200910 16:25:22.903" level="INFO">Typing text 'lamkuteo' into text field 'css=.input--type-5[placeholder='Mật khẩu']'.</msg>
<status status="PASS" starttime="20200910 16:25:20.875" endtime="20200910 16:25:26.040"></status>
</kw>
<kw name="Click Element If Visible" library="RPA.Browser">
<doc>Click element if it is visible</doc>
<arguments>
<arg>${Đn}</arg>
</arguments>
<msg timestamp="20200910 16:25:28.064" level="INFO">Element 'css=.button--login' is displayed.</msg>
<msg timestamp="20200910 16:25:28.064" level="INFO">Clicking element 'css=.button--login'.</msg>
<status status="PASS" starttime="20200910 16:25:26.041" endtime="20200910 16:25:30.128"></status>
</kw>
<kw name="Click Element If Visible" library="RPA.Browser">
<doc>Click element if it is visible</doc>
<arguments>
<arg>${Sport}</arg>
</arguments>
<msg timestamp="20200910 16:25:32.167" level="INFO">Element 'css=a[href='/sport']' is displayed.</msg>
<msg timestamp="20200910 16:25:32.167" level="INFO">Clicking element 'css=a[href='/sport']'.</msg>
<status status="PASS" starttime="20200910 16:25:30.128" endtime="20200910 16:25:34.236"></status>
</kw>
<kw name="Click Element If Visible" library="RPA.Browser">
<doc>Click element if it is visible</doc>
<arguments>
<arg>${SSport}</arg>
</arguments>
<msg timestamp="20200910 16:25:36.281" level="INFO">Element 'css=[src='//d1.debet.com/rs2/images/lobby/sport/sport_chaua.png']' is displayed.</msg>
<msg timestamp="20200910 16:25:36.281" level="INFO">Clicking element 'css=[src='//d1.debet.com/rs2/images/lobby/sport/sport_chaua.png']'.</msg>
<status status="PASS" starttime="20200910 16:25:34.236" endtime="20200910 16:25:38.343"></status>
</kw>
<status status="PASS" starttime="20200910 16:25:01.147" endtime="20200910 16:25:38.343"></status>
</kw>
<kw name="Close All Browsers" library="RPA.Browser" type="teardown">
<doc>Closes all open browsers and resets the browser cache.</doc>
<status status="PASS" starttime="20200910 16:25:38.345" endtime="20200910 16:25:41.410"></status>
</kw>
<status status="PASS" starttime="20200910 16:23:59.418" endtime="20200910 16:25:41.411" critical="yes"></status>
</test>
<status status="PASS" starttime="20200910 16:23:58.989" endtime="20200910 16:25:41.416"></status>
</suite>
<statistics>
<total>
<stat pass="1" fail="0">Critical Tests</stat>
<stat pass="1" fail="0">All Tests</stat>
</total>
<tag>
</tag>
<suite>
<stat pass="1" fail="0" id="s1" name="Test tro choi">Test tro choi</stat>
</suite>
</statistics>
<errors>
</errors>
</robot>
